{
  "AR":"Annual Report",
  "CA":"CreditReform",
  "CG": "Infocredit Group Ltd",
  "CP":"Credinform",
  "FS":"Factset",
  "IA":"Investment Adviser Public Disclosure Database",
  "IN":"Informa",
  "IP":"Other Information",
  "JO":"Jordans",
  "LN":"LexisNexis",
  "NQ":"NASDAQ",
  "OF":"Orell Füssli Wirtschaftsinformationen",
  "OS":"Other Sources",
  "PC":"Private correspondence",
  "PN":"Press News",
  "PX":"SEC Filling",
  "RC":"Cedar Rose",
  "RM":"Shareholders Report",
  "RS":"Shareholders Subsidiaries Report",
  "RT":"Annual Return",
  "SC":"Ellisphere",
  "SE":"Stock exchanges",
  "TC":"Telephone Calls",
  "TI":"China Credit Information Service",
  "VC":"Creditreform",
  "VD":"BST",
  "WB":"Worldbox",
  "WO":"wholly owned",
  "WW":"Company Website"

  
}